<?xml version="1.0" encoding="UTF-8" standalone="no"?>
<!-- Created with Inkscape (http://www.inkscape.org/) -->

<svg
   xmlns:dc="http://purl.org/dc/elements/1.1/"
   xmlns:cc="http://creativecommons.org/ns#"
   xmlns:rdf="http://www.w3.org/1999/02/22-rdf-syntax-ns#"
   xmlns:svg="http://www.w3.org/2000/svg"
   xmlns="http://www.w3.org/2000/svg"
   xmlns:sodipodi="http://sodipodi.sourceforge.net/DTD/sodipodi-0.dtd"
   xmlns:inkscape="http://www.inkscape.org/namespaces/inkscape"
   width="1052.3622"
   height="744.09448"
   id="svg2"
   version="1.1"
   inkscape:version="0.48.5 r10040"
   sodipodi:docname="catalogIcon-iis.svg">
  <defs
     id="defs4" />
  <sodipodi:namedview
     id="base"
     pagecolor="#ffffff"
     bordercolor="#666666"
     borderopacity="1.0"
     inkscape:pageopacity="0.0"
     inkscape:pageshadow="2"
     inkscape:zoom="0.35"
     inkscape:cx="375"
     inkscape:cy="520"
     inkscape:document-units="px"
     inkscape:current-layer="layer1"
     showgrid="false"
     inkscape:window-width="1680"
     inkscape:window-height="995"
     inkscape:window-x="-2"
     inkscape:window-y="-3"
     inkscape:window-maximized="1" />
  <metadata
     id="metadata7">
    <rdf:RDF>
      <cc:Work
         rdf:about="">
        <dc:format>image/svg+xml</dc:format>
        <dc:type
           rdf:resource="http://purl.org/dc/dcmitype/StillImage" />
        <dc:title />
      </cc:Work>
    </rdf:RDF>
  </metadata>
  <g
     inkscape:label="Calque 1"
     inkscape:groupmode="layer"
     id="layer1"
     transform="translate(0,-308.2677)">
    <path
       style="fill:#000000"
       d="m 626.21046,817.30455 c -0.16014,-13.34084 0.51908,-22.5615 1.50907,-20.4903 1.33334,2.78951 3.64746,2.93015 8.92635,0.54251 9.89558,-4.47581 24.58322,3.81929 24.58322,13.88377 0,10.10345 -14.68614,18.36025 -24.64499,13.85584 -6.42065,-2.90409 -7.34268,-2.19872 -8.63541,6.6065 -0.79604,5.4218 -1.57825,-1.05747 -1.73824,-14.39832 z m 27.84345,-6.06402 c 0,-9.96475 -11.82095,-15.34866 -19.48266,-8.87346 -3.09683,2.61724 -5.63055,6.61029 -5.63055,8.87346 0,2.26318 2.53372,6.25622 5.63055,8.87345 7.66171,6.47521 19.48266,1.09131 19.48266,-8.87345 z m 212.52592,6.06402 c -0.16139,-13.34084 0.51901,-22.5615 1.50885,-20.4903 1.33359,2.78951 3.64756,2.93015 8.92634,0.54251 9.89567,-4.47581 24.58325,3.81929 24.58325,13.88377 0,10.10345 -14.68612,18.36025 -24.64497,13.85584 -6.42076,-2.90409 -7.34271,-2.19872 -8.63536,6.6065 -0.79603,5.4218 -1.57818,-1.05747 -1.73811,-14.39832 z m 27.84328,-6.06402 c 0,-9.96475 -11.82072,-15.34866 -19.48244,-8.87346 -3.09683,2.61724 -5.63073,6.61029 -5.63073,8.87346 0,2.26318 2.5339,6.25622 5.63073,8.87345 7.66172,6.47521 19.48244,1.09131 19.48244,-8.87345 z m 106.42799,26.69793 c 11.6228,-1.9156 12.7812,-8.80588 4.2864,-25.49465 -9.47157,-18.60773 -6.32419,-23.40521 3.4546,-5.26531 l 7.093,13.15806 6.2837,-12.88604 c 3.4563,-7.08735 7.8264,-12.88605 9.7113,-12.88605 3.7838,0 3.8946,-0.29412 -9.9929,26.5301 -8.6016,16.61374 -10.9694,18.89917 -19.208,18.53719 -8.00253,-0.35167 -8.24432,-0.60289 -1.6281,-1.6933 z M 299.76769,812.75653 c -0.17585,-10.83944 0.46669,-18.07293 1.42801,-16.07442 1.30876,2.72075 3.91483,2.79918 10.37333,0.31221 12.77342,-4.91865 19.60077,1.29134 19.60077,17.8284 0,8.19574 -1.40179,12.71956 -3.5876,11.57788 -1.97317,-1.03064 -3.58761,-7.25101 -3.58761,-13.82302 0,-9.668 -1.2859,-11.94909 -6.73592,-11.94909 -9.46469,0 -14.02237,5.72763 -15.71305,19.74652 -0.96843,8.02993 -1.56547,5.47165 -1.77793,-7.61848 z m 501.91793,1.51601 c -0.52418,-17.82356 -0.33504,-18.20202 9.32838,-18.68239 5.42487,-0.26953 11.75488,0.83195 14.06675,2.44809 2.76085,1.93002 6.66212,1.64065 11.36835,-0.84327 11.04886,-5.83156 18.51044,1.20211 18.51044,17.4488 0,7.30008 -1.61447,13.27283 -3.58758,13.27283 -1.97323,0 -3.58759,-6.23474 -3.58759,-13.85494 0,-12.63381 -0.71148,-13.76954 -8.07212,-12.88605 -6.71849,0.80641 -8.25772,3.14132 -9.17929,13.92403 -1.36683,15.99348 -7.86185,13.90987 -7.86185,-2.52206 0,-9.88946 -1.22489,-11.94909 -7.10679,-11.94909 -7.1545,0 -9.22111,3.9159 -12.00064,22.74008 -0.73866,5.00281 -1.58383,0.90962 -1.87806,-9.09603 z m 154.61321,-1.51601 c -0.17589,-10.83944 0.46649,-18.07293 1.42792,-16.07442 1.30864,2.72075 3.91472,2.79918 10.37316,0.31221 12.77371,-4.91865 19.60087,1.29134 19.60087,17.8284 0,8.19574 -1.40167,12.71956 -3.58761,11.57788 -1.97319,-1.03064 -3.5876,-7.25101 -3.5876,-13.82302 0,-9.668 -1.28575,-11.94909 -6.73565,-11.94909 -9.46484,0 -14.02261,5.72763 -15.71343,19.74652 -0.9683,8.02993 -1.56517,5.47165 -1.77766,-7.61848 z m -937.136263,13.1861 c -0.187645,-5.74188 20.474118,-44.75813 24.268671,-45.8271 3.860671,-1.08761 27.507991,44.37314 24.433253,46.97172 -1.049702,0.88713 -3.842548,-1.97435 -6.206305,-6.35885 -3.554415,-6.59292 -6.680452,-7.97187 -18.072354,-7.97187 -7.575999,0 -13.774537,1.10362 -13.774537,2.4525 0,3.95989 -10.523364,14.56715 -10.648728,10.7336 z m 31.236612,-29.86216 c -4.227318,-11.64078 -8.006198,-13.4985 -10.793418,-5.30603 -0.992871,2.9183 -2.968308,7.69373 -4.389894,10.61204 -2.125144,4.36275 -0.662738,5.30603 8.226198,5.30603 10.697538,0 10.770433,-0.11119 6.957114,-10.61204 z m 65.635771,27.96295 c -19.152741,-8.19073 -16.587781,-36.55461 3.81983,-42.24069 11.78244,-3.2829 28.34737,1.74762 28.34737,8.6086 0,4.74194 -0.45222,4.74711 -6.56079,0.0749 -13.86049,-10.6009 -32.90283,-2.97644 -32.90283,13.17427 0,15.55317 21.49432,24.63599 32.2884,13.64405 5.57992,-5.68212 11.17302,-5.9474 8.65904,-0.41069 -1.73683,3.82521 -16.46371,11.08117 -22.28133,10.97803 -1.38703,-0.0244 -6.5034,-1.7474 -11.36969,-3.82846 z m 47.77112,-20.38291 c 0,-14.17468 0.61802,-19.97338 1.37336,-12.88607 0.75528,7.08733 0.75528,18.68478 0,25.77211 -0.75534,7.08731 -1.37336,1.28861 -1.37336,-12.88604 z m 16.21082,19.22571 c -5.56269,-5.66461 -0.16751,-14.23627 9.82718,-15.61323 15.39533,-2.12097 17.98279,-3.81665 10.92944,-7.16259 -4.64401,-2.20302 -7.80763,-2.14204 -10.58345,0.20369 -4.83519,4.08652 -9.6995,4.34655 -9.6995,0.51862 0,-4.09406 13.15347,-6.99805 21.52561,-4.75232 5.83284,1.56457 7.17217,4.58077 7.15913,16.12237 -0.0147,14.04823 -0.14614,14.20332 -12.34147,14.72752 -7.27389,0.31268 -14.16619,-1.34481 -16.81694,-4.04414 z m 19.94922,-2.76623 c 8.05301,-6.80589 6.97578,-10.39547 -3.11961,-10.39547 -9.88447,0 -14.36888,4.22969 -11.40507,10.75724 2.58997,5.70407 7.49179,5.58196 14.52468,-0.36177 z m 23.58385,-7.9425 c 0.007,-15.7881 0.21442,-16.1032 10.76278,-16.41989 12.15618,-0.3649 14.465,3.3436 3.57942,5.74941 -5.46795,1.20847 -7.17519,4.1357 -7.17519,12.30271 0,5.89432 -1.61441,11.56024 -3.58759,12.59088 -2.22003,1.15956 -3.58448,-4.26232 -3.57942,-14.22311 z m 31.80656,10.70873 c -5.5627,-5.66461 -0.16752,-14.23627 9.82716,-15.61323 15.39534,-2.12097 17.98279,-3.81665 10.92945,-7.16259 -4.64401,-2.20302 -7.80762,-2.14204 -10.58344,0.20369 -4.83519,4.08652 -9.69951,4.34655 -9.69951,0.51862 0,-4.09406 13.15345,-6.99805 21.5256,-4.75232 5.83285,1.56457 7.17219,4.58077 7.15914,16.12237 -0.0147,14.04823 -0.14614,14.20332 -12.34147,14.72752 -7.27388,0.31268 -14.16619,-1.34481 -16.81693,-4.04414 z m 19.9492,-2.76623 c 8.05299,-6.80589 6.97578,-10.39547 -3.1196,-10.39547 -9.88449,0 -14.36888,4.22969 -11.40507,10.75724 2.58997,5.70407 7.49179,5.58196 14.52467,-0.36177 z m 74.60036,3.07667 c -10.56524,-6.25418 -10.32433,-18.0946 0.49003,-24.08308 11.88332,-6.58044 27.19932,-1.06431 27.35756,9.85295 0.0358,2.40808 -5.17757,3.79 -14.29546,3.79 -14.99263,0 -17.90457,2.82863 -9.19831,8.93518 3.75083,2.63085 7.10175,2.73181 12.32073,0.37123 10.36947,-4.69011 14.20101,-3.80333 6.05778,1.40207 -8.82608,5.64184 -12.82791,5.59462 -22.73233,-0.26835 z M 370.6334,805.5009 c 0,-5.83577 -10.61793,-8.74854 -16.59893,-4.55348 -7.89484,5.53746 -5.74074,8.7771 5.83613,8.7771 6.80784,0 10.7628,-1.55207 10.7628,-4.22362 z m 23.91736,20.39435 c -1.31548,-1.11174 -2.39176,-6.97867 -2.39176,-13.03767 0,-6.05895 -1.93729,-12.65357 -4.3051,-14.6547 -3.03712,-2.5668 -3.11462,-3.63841 -0.26298,-3.63841 2.22312,0 4.78037,-2.38773 5.68273,-5.30604 1.56257,-5.05336 1.66052,-5.05336 2.05687,0 0.25975,3.31301 3.44815,5.37823 8.48827,5.49824 l 8.07209,0.1923 -8.07209,2.74212 c -10.87191,3.69322 -11.5658,20.92521 -0.93727,23.27417 3.92419,0.86728 6.25054,2.78616 5.16972,4.26418 -2.31426,3.16462 -10.09003,3.54821 -13.5004,0.66595 z m 58.7187,-1.85183 c -19.49693,-8.33794 -16.51671,-36.57216 4.47823,-42.42616 10.60487,-2.95694 27.68896,3.49377 27.68896,10.45501 0,1.97657 -2.78233,1.304 -6.5608,-1.58591 -13.57865,-10.38545 -32.90283,-2.18991 -32.90283,13.9543 0,14.28414 20.4237,23.1944 31.57091,13.77348 6.32489,-5.3454 5.26196,-8.48962 -2.8701,-8.48962 -3.94634,0 -7.17519,-1.3644 -7.17519,-3.03201 0,-1.66761 4.03606,-3.032 8.96901,-3.032 8.16864,0 8.96408,1.14988 8.91408,12.88604 -0.0288,7.08731 -1.28365,11.25257 -2.78543,9.25609 -1.80076,-2.39404 -4.53046,-2.66793 -8.01712,-0.80444 -6.99225,3.73708 -10.73021,3.56957 -21.30972,-0.95478 z m 46.52577,-11.86593 c 0.007,-15.7881 0.21441,-16.1032 10.76281,-16.41989 12.15618,-0.3649 14.46499,3.3436 3.57941,5.74941 -5.46797,1.20847 -7.17519,4.1357 -7.17519,12.30271 0,5.89432 -1.61442,11.56024 -3.5876,12.59088 -2.22002,1.15956 -3.58448,-4.26232 -3.57943,-14.22311 z m 36.6661,11.01917 c -17.85868,-10.57155 -0.88617,-33.78385 19.08049,-26.09529 16.19666,6.23684 9.75051,30.81523 -8.08183,30.81523 -1.66387,0 -6.61328,-2.12398 -10.99866,-4.71994 z m 24.31493,-11.95613 c 0,-8.92115 -10.11293,-14.37327 -18.92753,-10.2043 -14.47536,6.84633 -2.06249,27.06483 12.5566,20.45256 3.50403,-1.58486 6.37093,-6.19657 6.37093,-10.24826 z m 22.42253,14.66803 c -2.89381,-0.98682 -4.27058,-7.08603 -3.88144,-17.1947 0.54955,-14.27487 0.73251,-14.59227 2.06115,-3.5758 1.88228,15.60725 6.62871,20.62471 15.65052,16.54411 4.91796,-2.2244 6.79848,-6.40016 6.79848,-15.09633 0,-6.61177 1.61441,-12.02137 3.58759,-12.02137 1.97318,0 3.5876,7.67129 3.5876,17.04729 0,14.33138 -0.8065,16.4817 -5.06201,13.49686 -3.46045,-2.42715 -5.79758,-2.54462 -7.38694,-0.37128 -2.43773,3.33351 -7.81217,3.74345 -15.35495,1.17122 z m 124.79034,-1.86514 c -19.15271,-8.19073 -16.58777,-36.55461 3.81982,-42.24069 11.78246,-3.2829 28.34737,1.74762 28.34737,8.6086 0,4.74194 -0.45225,4.74711 -6.56079,0.0749 -13.86046,-10.6009 -32.90282,-2.97644 -32.90282,13.17427 0,15.55317 21.49433,24.63599 32.28842,13.64405 5.57992,-5.68212 11.17295,-5.9474 8.65906,-0.41069 -1.73688,3.82521 -16.46376,11.08117 -22.28138,10.97803 -1.38703,-0.0244 -6.50341,-1.7474 -11.36968,-3.82846 z m 50.90348,-0.84676 c -17.85864,-10.57155 -0.88615,-33.78385 19.0805,-26.09529 16.19664,6.23684 9.75052,30.81523 -8.08189,30.81523 -1.66383,0 -6.61322,-2.12398 -10.99861,-4.71994 z m 24.31495,-11.95613 c 0,-8.92115 -10.113,-14.37327 -18.92754,-10.2043 -14.47534,6.84633 -2.06249,27.06483 12.55662,20.45256 3.50397,-1.58486 6.37092,-6.19657 6.37092,-10.24826 z m 128.67999,11.64569 c -5.56257,-5.66461 -0.16845,-14.23627 9.82723,-15.61323 15.39546,-2.12097 17.98282,-3.81665 10.92919,-7.16259 -4.64375,-2.20302 -7.80732,-2.14204 -10.58344,0.20369 -4.83497,4.08638 -9.69936,4.34641 -9.69936,0.51848 0,-4.09406 13.15352,-6.99805 21.5256,-4.75234 5.83302,1.56457 7.17233,4.58078 7.15902,16.12239 0,14.04823 -0.14708,14.20332 -12.34127,14.72752 -7.2739,0.31265 -14.16604,-1.34482 -16.81697,-4.04418 z m 19.94927,-2.76623 c 8.05309,-6.80589 6.97567,-10.39547 -3.11985,-10.39547 -9.88413,0 -14.3687,4.22969 -11.40491,10.75724 2.5899,5.70407 7.49155,5.58196 14.52476,-0.36177 z m -700.22296,-97.46348 9.86591,-1.26314 0,-77.1149 0,-77.11493 -8.96901,0 c -4.93295,0 -8.96898,-1.13702 -8.96898,-2.52668 0,-1.38968 9.36743,-2.52668 20.81649,-2.52668 l 20.81647,0 -1.62095,9.34873 -1.62093,9.34871 14.89697,-11.37008 c 11.77734,-8.98896 17.78896,-11.37005 28.70655,-11.37005 27.90622,0 54.33422,25.88885 54.33422,53.2258 0,39.98009 -52.95483,66.57481 -84.05656,42.21446 -5.27492,-4.13152 -10.36447,-7.51188 -11.31014,-7.51188 -0.94565,0 -1.26608,16.71396 -0.71205,37.14215 l 1.00732,37.14213 12.55661,1.87488 c 7.23378,1.08011 -1.89099,1.85148 -21.5256,1.81974 -18.74523,-0.0302 -29.64256,-0.62358 -24.21632,-1.31826 z m 97.0707,-76.66064 c 5.25443,-8.60001 6.24043,-16.07328 5.20033,-39.41616 -1.75534,-39.39516 -9.40447,-48.50734 -37.04083,-44.12562 -17.92484,2.84193 -30.43092,18.19308 -32.77248,40.22796 -3.88587,36.5675 11.30893,56.50428 41.78559,54.82592 14.60711,-0.80445 17.03252,-2.02762 22.82739,-11.5121 z m 440.89014,75.1939 c -6.59892,-5.57697 -5.12877,-13.96782 3.09934,-17.68939 8.25806,-3.73516 17.7087,0.5636 17.7087,8.05498 0,8.59829 6.7742,3.7286 12.11541,-8.70926 13.84782,-32.24722 14.22199,-29.91604 -13.51875,-84.23135 -21.22403,-41.55577 -26.85822,-50.09777 -33.57578,-50.90409 -18.37105,-2.20506 -6.03166,-5.10705 22.42275,-5.27345 16.77189,-0.0979 30.49435,0.92523 30.49435,2.27399 0,1.34876 -4.03605,2.45234 -8.96894,2.45234 -4.93297,0 -8.96904,0.49825 -8.96904,1.10724 0,0.60899 7.95323,17.32298 17.67379,37.14215 16.05983,32.74426 17.99621,35.34269 21.2045,28.45488 22.53606,-48.38199 28.41405,-62.41194 26.97312,-64.3823 -0.93392,-1.27708 -7.25325,-2.32197 -14.04292,-2.32197 -6.78966,0 -12.34485,-1.25874 -12.34485,-2.7972 0,-1.5631 11.47495,-2.25926 26.01011,-1.57791 31.71791,1.48682 32.19545,1.58614 19.11069,3.97585 -9.67032,1.76609 -12.11391,5.33941 -31.37226,45.87945 -11.4868,24.18029 -25.05327,56.24383 -30.14763,71.25229 -5.09434,15.00845 -12.64934,30.35803 -16.78888,34.11012 -8.23517,7.46452 -20.33543,8.88688 -27.08371,3.18363 z m 167.93772,-12.99905 c -5.9612,-6.07036 -1.9904,-13.68268 7.13715,-13.68268 4.07011,0 8.33752,2.064 9.48307,4.58662 2.06139,4.54031 -4.25701,13.60547 -9.48307,13.60547 -1.48993,0 -4.70154,-2.02925 -7.13715,-4.50941 z m -28.02139,-32.48115 c -2.36785,-2.00111 -4.30514,-6.50365 -4.30514,-10.00563 0,-3.50196 1.93729,-8.0045 4.30514,-10.00563 10.06331,-8.5048 27.98335,-2.09733 27.98335,10.00563 0,8.12718 -6.52775,13.64405 -16.14425,13.64405 -4.14363,0 -9.47123,-1.63728 -11.8391,-3.63842 z M 30.779706,662.11904 c -9.45903,-1.6186 -22.4940189,-14.63007 -22.4940189,-22.45346 0,-18.0131 21.9582039,-31.31817 57.4846779,-34.83154 l 19.814888,-1.95957 -0.768338,-17.00738 c -0.85361,-18.89346 -6.364009,-24.76757 -23.234108,-24.76757 -11.899064,0 -28.183912,5.83699 -28.183912,10.10197 0,1.68551 2.460563,5.36241 5.467885,8.17087 7.297346,6.81473 3.045322,15.07928 -7.758103,15.07928 -17.515731,0 -15.264511,-20.84507 3.283402,-30.40282 13.863911,-7.1441 38.221981,-7.81354 52.78124,-1.45061 19.192121,8.38766 21.565211,14.47997 21.565211,55.36333 0,30.77881 0.96671,37.6342 5.515,39.10926 3.0333,0.9837 8.91961,-0.76462 13.08079,-3.88519 5.64824,-4.23578 7.13843,-4.52109 5.87976,-1.12572 -4.55537,12.28839 -34.922984,14.29556 -43.368513,2.86642 -3.89046,-5.2649 -4.374565,-5.26446 -13.201517,0.0121 -9.777359,5.84505 -32.697636,9.43332 -45.864344,7.18029 z m 43.99831,-10.89453 c 8.028649,-5.83648 9.579382,-9.57384 10.065933,-24.25947 l 0.575175,-17.36008 -17.204167,0.002 c -22.261351,0.002 -34.816062,9.43666 -34.816062,26.15695 0,21.22738 22.091236,29.48068 41.379121,15.45925 z m 100.480664,10.85827 c -3.86409,-0.88815 -10.59067,-3.58892 -14.94792,-6.00175 -7.09567,-3.92928 -8.31639,-3.8143 -11.70013,1.10195 -2.91528,4.23566 -3.74051,0.989 -3.61405,-14.21912 0.15818,-19.03788 0.31142,-19.36372 4.50209,-9.58151 7.254,16.93275 18.77064,24.74154 36.48945,24.74154 12.47964,0 16.95899,-1.55971 22.94284,-7.98892 15.47061,-16.62183 5.35412,-29.94411 -25.76696,-33.93212 -26.7019,-3.4217 -34.96185,-9.69113 -34.96185,-26.53651 0,-25.9649 26.14566,-39.14292 53.73679,-27.08457 9.4301,4.12129 10.47143,4.05532 11.9623,-0.75799 0.89816,-2.89976 1.75707,1.54976 1.90873,9.88778 l 0.2759,15.16005 -5.07927,-9.87711 c -11.69751,-22.7469 -55.6291,-19.7908 -55.6291,3.74321 0,9.61563 11.07201,15.47659 33.84914,17.918 22.40835,2.40191 33.05052,8.28313 36.07965,19.9388 6.62401,25.48841 -21.612,50.02382 -50.04747,43.48827 z m 211.0732,-1.19552 c -21.33761,-5.21446 -28.67292,-23.00288 -15.37654,-37.28876 9.91062,-10.64811 23.91226,-15.77137 50.80138,-18.58837 l 20.62871,-2.16116 0,-16.15477 c 0,-13.25677 -1.43038,-17.00151 -7.9735,-20.87476 -10.90638,-6.45608 -28.95231,-5.92736 -39.16477,1.14752 -8.14871,5.64514 -8.21694,6.02603 -1.80114,10.05445 9.58572,6.01874 6.24587,15.69845 -5.8226,16.87528 -18.90581,1.84358 -17.49611,-19.83184 1.94118,-29.84787 20.2946,-10.45785 56.43879,-5.85262 69.74785,8.88667 2.89325,3.20425 4.40895,17.93805 4.4845,43.59338 0.0943,32.00712 1.07417,39.06471 5.62913,40.54193 3.03324,0.9837 8.91956,-0.76462 13.08072,-3.88519 5.64826,-4.23578 7.13845,-4.52109 5.87979,-1.12572 -4.53444,12.23199 -34.91496,14.30639 -43.30181,2.95666 -3.79727,-5.13874 -4.3777,-5.1344 -13.2015,0.0989 -11.59785,6.87836 -30.97614,9.33383 -45.5514,5.77193 z m 45.01547,-10.61291 c 9.82146,-6.98438 11.03808,-9.65788 11.03808,-24.25609 l 0,-16.40654 -18.10106,0 c -22.49811,0 -35.71296,9.23581 -35.71296,24.95964 0,22.74351 21.68269,30.70319 42.77594,15.70299 z m 94.18906,8.60756 c -1.76212,-2.91831 -13.29321,-24.74881 -25.62464,-48.5122 -17.48425,-33.69319 -23.91576,-43.20617 -29.21076,-43.20617 -3.73449,0 -6.78961,-1.0233 -6.78918,-2.27401 4.4e-4,-1.25069 27.44557,-2.3464 60.98923,-2.43492 33.54363,-0.0886 60.98842,0.93479 60.98842,2.27402 0,1.3392 -4.68198,2.43491 -10.40439,2.43491 l -10.40442,0 18.18279,34.96477 c 10.00056,19.23061 19.36401,33.89797 20.80767,32.59415 5.82313,-5.25905 31.16296,-59.90901 29.48837,-63.59705 -0.98938,-2.17903 -5.66219,-3.96187 -10.38404,-3.96187 -4.72182,0 -8.58517,-1.08655 -8.58517,-2.41455 0,-1.32798 10.48488,-2.3513 23.29974,-2.27401 12.81485,0.0773 23.30857,1.16386 23.3194,2.41455 0.01,1.25071 -3.17196,2.27401 -7.07285,2.27401 -9.31223,0 -13.3406,5.82016 -38.28088,55.30736 -11.54848,22.91479 -21.966,41.67536 -23.15012,41.69018 -1.18407,0.0141 -8.37607,-12.25279 -15.98215,-27.26126 -7.60616,-15.00845 -14.78239,-27.2881 -15.94717,-27.2881 -1.16479,0 -8.34099,12.27965 -15.94714,27.2881 -7.60608,15.00847 -14.33769,27.28811 -14.95906,27.28811 -0.62138,0 -2.5715,-2.38771 -4.33365,-5.30602 z m 29.78118,-52.09643 c 1.63146,-4.34428 -0.44484,-12.51485 -5.87494,-23.11865 l -8.39818,-16.3998 -18.5666,-0.0519 -18.56655,-0.0516 14.45366,28.0461 c 7.9495,15.42538 15.99808,31.42092 17.8857,35.54567 3.38314,7.39281 3.52532,7.32343 9.98785,-4.8757 3.6057,-6.80642 7.69127,-15.3988 9.07906,-19.09414 z m 114.05511,55.33356 c -9.45903,-1.6186 -22.494,-14.63007 -22.494,-22.45346 0,-17.74637 21.50317,-31.00361 56.50472,-34.83657 l 18.8349,-2.06255 0,-17.69479 c 0,-14.39117 -1.29555,-18.28075 -6.93937,-20.83346 -9.13466,-4.13165 -22.82852,-3.97928 -34.14924,0.37999 -10.50544,4.04535 -11.37852,7.55534 -3.6699,14.75416 7.29731,6.81473 3.04529,15.07928 -7.75813,15.07928 -17.51573,0 -15.26452,-20.84507 3.2834,-30.40282 13.86391,-7.1441 38.222,-7.81354 52.78124,-1.45061 19.19213,8.38766 21.56518,14.47997 21.56518,55.36333 0,30.77881 0.96675,37.6342 5.51506,39.10926 3.03329,0.9837 8.91955,-0.76462 13.08072,-3.88519 5.64833,-4.23578 7.13843,-4.52109 5.8798,-1.12572 -4.55536,12.28839 -34.92296,14.29556 -43.36851,2.86642 -3.89047,-5.2649 -4.37458,-5.26446 -13.2015,0.0121 -9.77736,5.84505 -32.69766,9.43332 -45.86437,7.18029 z m 43.99831,-10.89453 c 8.02865,-5.83648 9.57939,-9.57384 10.06593,-24.25947 l 0.57518,-17.36008 -16.55727,0.002 c -23.46547,0.006 -35.46296,8.46215 -35.46296,24.99885 0,22.38759 21.54156,31.03838 41.37912,16.61735 z m 166.70171,-17.3567 c -9.68439,-8.18456 -9.0275,-16.90237 1.97426,-26.2003 15.13362,-12.78994 37.4894,-4.33299 37.4894,14.18182 0,16.47126 -25.13694,24.12658 -39.46366,12.01848 z m 106.73109,-27.53097 c -12.77039,-6.28631 -5.4876,-24.01325 9.86592,-24.01325 15.75927,0 22.64687,18.06959 9.20517,24.14945 -8.479,3.83491 -11.04095,3.8166 -19.07109,-0.1362 z m 48.92989,-1.06049 c -3.5721,-7.86706 1.4344,-14.3693 10.2494,-13.31137 5.9296,0.71157 8.0882,2.99383 8.0882,8.55071 0,5.55685 -2.1586,7.83911 -8.0882,8.55068 -4.8511,0.58222 -8.9528,-0.93445 -10.2494,-3.79002 z m -110.25231,-4.92763 c -18.2351,-12.12237 -8.86499,-33.18518 14.76301,-33.18518 19.08667,0 28.55363,17.51409 16.06486,29.72075 -9.73029,9.51045 -19.99729,10.66428 -30.82787,3.46443 z m -24.17721,-49.41725 c -21.66123,-9.12687 -14.92087,-35.31215 9.08949,-35.31215 14.70342,0 23.51285,6.63396 23.43812,17.65065 -0.0711,10.53498 -3.38333,14.65089 -14.72233,18.29426 -6.43047,2.06625 -11.85744,1.87342 -17.80528,-0.63276 z m -66.07644,-8.63988 c -9.68245,-4.60686 -12.43657,-8.54238 -12.5017,-17.86429 -0.11737,-16.79681 29.62018,-24.89523 40.99912,-11.16531 7.26125,8.76151 7.06106,15.40284 -0.69355,22.98206 -8.17521,7.99056 -18.84325,10.31095 -27.80387,6.04754 z m 102.28544,-37.24492 c -5.96476,-6.07415 -1.73572,-18.88367 7.0094,-21.22936 15.93506,-4.27435 28.94429,12.29866 17.34748,22.09959 -5.94714,5.02635 -19.02543,4.5591 -24.35688,-0.87023 z M 803.19566,492.66268 c -6.61104,-5.58719 -6.96948,-8.69106 -1.92392,-16.65883 3.71195,-5.86165 16.19168,-7.74746 23.45488,-3.54426 7.01053,4.05697 8.23972,12.05459 2.85188,18.55557 -6.29064,7.59026 -16.53234,8.28226 -24.38284,1.64752 z m 167.8644,-27.07154 c -2.84213,-6.25936 1.01167,-13.64407 7.11996,-13.64407 7.34346,0 13.59119,7.53644 10.99274,13.25975 -2.81265,6.19424 -15.35386,6.46035 -18.1127,0.38432 z m -192.48469,-9.47347 c -1.39864,-1.1821 -2.54301,-4.74129 -2.54301,-7.90935 0,-4.49494 2.16691,-5.54937 9.86586,-4.80068 7.09578,0.69003 9.86596,2.66207 9.86596,7.02343 0,6.0918 -12.00855,10.06459 -17.18881,5.6866 z"
       id="path3139"
       inkscape:connector-curvature="0" />
  </g>
</svg>
